{
		"magic" : 85,
		"SID" : 0,
		"pass_device" : [0, 0, 0, 0, 0, 0, 0, 0, 0, 0, 0, 0, 0, 0, 0, 0],
		"pass_admin" : [0, 0, 0, 0, 0, 0, 0, 0, 0, 0, 0, 0, 0, 0, 0, 0],
		"paymethode" : 1,
		"mesmode" : 0,
		"vm_lpp" : 1000.000,
		"vm_def_lps" : 12.000,
		"vm_lps_min" : 8.000,
		"vm_lps_max" : 16.000,
		"vm_units" : 1000,
		"nrg_ppkwh" : 100,
		"nrg_def_kwhps" : 0.138,
		"nrg_kwhps_min" : 0.050,
		"nrg_kwhps_max" : 0.250,
		"nrg_units" : 1,
		"t_units" : 3600,
		"du_lit" : 10000,
		"du_kwh" : 5000,
		"du_t" : 600,
		"autoconv" : 0,
		"disp_timeout" : 8,
		"sens_timeout" : 720,
		"relay_timeout" : 720,
		"sample_time" : 6,
		"sample_interval" : 600,
		"sample_delay" : 15,
		"output_type" : 0,
		"sensor_pwr" : 1,
		"BUS_vID" : 2,
		"BUS_bunch_send" : 4,
		"volt_valve_low" : 9.000,
		"volt_valve_high" : 12.000,
		"volt_bat_low" : 1.900,
		"volt_bat_warn" : 2.100,
		"time_valve_on" : 120,
		"time_valve_off" : 120,
		"timeout_valve" : 3000,
		"sleep_policy" : 2,
		"policy_magic": 85,
		"PID": 0,
		"lock_sens2usr": 0,
		"lock_sens2device": 0,
		"lock_auth2key": 0,
		"lock_auth2usr": 0,
		"lock_auth2device": 0,
		"log_login": 0,
		"log_lock": 1,
		"log_begin": 1,
		"log_end": 1,
		"log_credits": 1,
		"log_power_up": 0,
		"log_power_dwn": 1,
		"log_er_card_io": 0,
		"log_er_sensor": 1,
		"log_er_cons_on": 0,
		"log_er_cons_off": 0,
		"log_er_auth": 0,
		"log_er_valve_volt": 0,
		"log_er_battery": 1,
		"log_er_memory": 0,
		"log_er_system": 0
}
